<svg width="112" height="140" viewBox="0 0 112 140" fill="none" xmlns="http://www.w3.org/2000/svg">
<rect width="112" height="140" rx="4" fill="#F9F9F9"/>
<path d="M27.92 100.89C27.78 100.277 27.52 99.84 27.14 99.58C26.76 99.32 26.2633 99.19 25.65 99.19C25.2167 99.19 24.8433 99.2767 24.53 99.45C24.2167 99.6233 23.9567 99.8567 23.75 100.15C23.55 100.443 23.4 100.783 23.3 101.17C23.2067 101.55 23.16 101.953 23.16 102.38C23.16 102.78 23.2 103.173 23.28 103.56C23.3667 103.947 23.5067 104.293 23.7 104.6C23.8933 104.9 24.1533 105.143 24.48 105.33C24.8067 105.517 25.2167 105.61 25.71 105.61C26.0167 105.61 26.2967 105.56 26.55 105.46C26.8033 105.36 27.0233 105.223 27.21 105.05C27.4033 104.87 27.5633 104.66 27.69 104.42C27.8233 104.18 27.9233 103.917 27.99 103.63H28.7C28.62 103.977 28.5033 104.307 28.35 104.62C28.1967 104.927 27.9933 105.197 27.74 105.43C27.4933 105.663 27.19 105.85 26.83 105.99C26.4767 106.123 26.06 106.19 25.58 106.19C25.0267 106.19 24.5533 106.09 24.16 105.89C23.7667 105.683 23.4433 105.407 23.19 105.06C22.9433 104.713 22.7633 104.313 22.65 103.86C22.5367 103.4 22.48 102.913 22.48 102.4C22.48 101.713 22.5633 101.13 22.73 100.65C22.9033 100.17 23.14 99.78 23.44 99.48C23.74 99.1733 24.0933 98.9533 24.5 98.82C24.9067 98.68 25.35 98.61 25.83 98.61C26.1967 98.61 26.5367 98.66 26.85 98.76C27.17 98.8533 27.45 98.9967 27.69 99.19C27.9367 99.3833 28.1367 99.6233 28.29 99.91C28.45 100.19 28.56 100.517 28.62 100.89H27.92ZM29.9568 106V98.8H30.5568V101.54C30.7968 101.287 31.0435 101.08 31.2968 100.92C31.5568 100.76 31.8668 100.68 32.2268 100.68C32.5468 100.68 32.8435 100.737 33.1168 100.85C33.3901 100.957 33.6201 101.147 33.8068 101.42C33.9335 101.607 34.0068 101.8 34.0268 102C34.0535 102.193 34.0668 102.397 34.0668 102.61V106H33.4668V102.62C33.4668 102.153 33.3635 101.803 33.1568 101.57C32.9501 101.337 32.6068 101.22 32.1268 101.22C31.9401 101.22 31.7701 101.25 31.6168 101.31C31.4635 101.363 31.3235 101.437 31.1968 101.53C31.0768 101.623 30.9735 101.73 30.8868 101.85C30.8001 101.97 30.7335 102.097 30.6868 102.23C30.6268 102.397 30.5901 102.557 30.5768 102.71C30.5635 102.863 30.5568 103.03 30.5568 103.21V106H29.9568ZM35.6234 106V100.82H36.2234V106H35.6234ZM35.5934 99.69V98.8H36.2534V99.69H35.5934ZM37.8602 106V98.8H38.4602V106H37.8602ZM44.007 103.39C44.007 103.097 43.967 102.82 43.887 102.56C43.807 102.293 43.6904 102.063 43.537 101.87C43.3904 101.67 43.207 101.513 42.987 101.4C42.7737 101.28 42.5304 101.22 42.257 101.22C41.9437 101.22 41.6737 101.283 41.447 101.41C41.2204 101.53 41.0337 101.697 40.887 101.91C40.7404 102.123 40.6337 102.373 40.567 102.66C40.5004 102.94 40.4737 103.243 40.487 103.57C40.487 103.897 40.5304 104.187 40.617 104.44C40.7104 104.687 40.837 104.897 40.997 105.07C41.157 105.243 41.3437 105.377 41.557 105.47C41.7704 105.557 42.0037 105.6 42.257 105.6C42.537 105.6 42.787 105.543 43.007 105.43C43.227 105.317 43.4104 105.163 43.557 104.97C43.7037 104.77 43.8137 104.537 43.887 104.27C43.967 103.997 44.007 103.703 44.007 103.39ZM44.007 98.8H44.607V106H44.007V105.09H43.987C43.9004 105.263 43.787 105.417 43.647 105.55C43.5137 105.677 43.3637 105.783 43.197 105.87C43.037 105.957 42.8704 106.023 42.697 106.07C42.5237 106.117 42.3537 106.14 42.187 106.14C41.767 106.14 41.4104 106.07 41.117 105.93C40.8237 105.79 40.5804 105.6 40.387 105.36C40.2004 105.113 40.0637 104.823 39.977 104.49C39.8904 104.157 39.847 103.8 39.847 103.42C39.847 103.06 39.8937 102.713 39.987 102.38C40.0804 102.047 40.2204 101.757 40.407 101.51C40.6004 101.257 40.8404 101.057 41.127 100.91C41.4204 100.757 41.7637 100.68 42.157 100.68C42.5237 100.68 42.8737 100.763 43.207 100.93C43.547 101.09 43.8137 101.33 44.007 101.65V98.8ZM46.7703 106H46.1703V100.82H46.7703V101.79H46.7903C46.957 101.377 47.1703 101.09 47.4303 100.93C47.697 100.763 48.047 100.68 48.4803 100.68V101.33C48.1403 101.323 47.8603 101.377 47.6403 101.49C47.4203 101.603 47.2436 101.757 47.1103 101.95C46.9836 102.143 46.8936 102.373 46.8403 102.64C46.7936 102.9 46.7703 103.173 46.7703 103.46V106ZM53.2404 103.05C53.2404 102.797 53.2037 102.56 53.1304 102.34C53.0637 102.113 52.9604 101.92 52.8204 101.76C52.6871 101.593 52.5171 101.463 52.3104 101.37C52.1037 101.27 51.8671 101.22 51.6004 101.22C51.3337 101.22 51.0971 101.27 50.8904 101.37C50.6904 101.47 50.5171 101.603 50.3704 101.77C50.2304 101.937 50.1171 102.13 50.0304 102.35C49.9437 102.57 49.8871 102.803 49.8604 103.05H53.2404ZM49.8604 103.55C49.8604 103.83 49.8971 104.097 49.9704 104.35C50.0437 104.597 50.1504 104.813 50.2904 105C50.4371 105.18 50.6204 105.327 50.8404 105.44C51.0604 105.547 51.3137 105.6 51.6004 105.6C51.9937 105.6 52.3304 105.497 52.6104 105.29C52.8904 105.083 53.0771 104.79 53.1704 104.41H53.8404C53.7671 104.657 53.6704 104.887 53.5504 105.1C53.4304 105.307 53.2804 105.49 53.1004 105.65C52.9204 105.803 52.7071 105.923 52.4604 106.01C52.2137 106.097 51.9271 106.14 51.6004 106.14C51.1871 106.14 50.8304 106.07 50.5304 105.93C50.2304 105.79 49.9837 105.6 49.7904 105.36C49.5971 105.113 49.4537 104.827 49.3604 104.5C49.2671 104.167 49.2204 103.81 49.2204 103.43C49.2204 103.05 49.2737 102.693 49.3804 102.36C49.4937 102.027 49.6504 101.737 49.8504 101.49C50.0571 101.237 50.3071 101.04 50.6004 100.9C50.8937 100.753 51.2271 100.68 51.6004 100.68C52.3137 100.68 52.8737 100.927 53.2804 101.42C53.6871 101.907 53.8871 102.617 53.8804 103.55H49.8604ZM55.667 106H55.067V100.82H55.667V101.54C55.907 101.287 56.1537 101.08 56.407 100.92C56.667 100.76 56.977 100.68 57.337 100.68C57.657 100.68 57.9537 100.737 58.227 100.85C58.5004 100.957 58.7304 101.147 58.917 101.42C59.0437 101.607 59.117 101.8 59.137 102C59.1637 102.193 59.177 102.397 59.177 102.61V106H58.577V102.62C58.577 102.153 58.4737 101.803 58.267 101.57C58.0604 101.337 57.717 101.22 57.237 101.22C57.0504 101.22 56.8804 101.25 56.727 101.31C56.5737 101.363 56.4337 101.437 56.307 101.53C56.187 101.623 56.0837 101.73 55.997 101.85C55.9104 101.97 55.8437 102.097 55.797 102.23C55.737 102.397 55.7004 102.557 55.687 102.71C55.6737 102.863 55.667 103.03 55.667 103.21V106ZM63.5369 106V98.8H65.9969C66.1969 98.8 66.3935 98.8067 66.5869 98.82C66.7802 98.8267 66.9702 98.85 67.1569 98.89C67.3435 98.9233 67.5235 98.9767 67.6969 99.05C67.8769 99.1233 68.0502 99.22 68.2169 99.34C68.4569 99.5133 68.6535 99.7267 68.8069 99.98C68.9602 100.227 69.0802 100.49 69.1669 100.77C69.2602 101.043 69.3235 101.323 69.3569 101.61C69.3969 101.89 69.4169 102.15 69.4169 102.39C69.4169 102.63 69.4002 102.873 69.3669 103.12C69.3402 103.367 69.2935 103.61 69.2269 103.85C69.1602 104.083 69.0702 104.31 68.9569 104.53C68.8502 104.743 68.7135 104.94 68.5469 105.12C68.3802 105.307 68.1969 105.457 67.9969 105.57C67.8035 105.683 67.5969 105.773 67.3769 105.84C67.1635 105.9 66.9402 105.943 66.7069 105.97C66.4735 105.99 66.2369 106 65.9969 106H63.5369ZM64.2169 105.42H65.8469C66.1535 105.42 66.4402 105.403 66.7069 105.37C66.9802 105.33 67.2569 105.237 67.5369 105.09C67.7769 104.97 67.9735 104.807 68.1269 104.6C68.2802 104.393 68.4002 104.17 68.4869 103.93C68.5802 103.683 68.6435 103.427 68.6769 103.16C68.7169 102.893 68.7369 102.637 68.7369 102.39C68.7369 102.13 68.7202 101.867 68.6869 101.6C68.6535 101.327 68.5902 101.07 68.4969 100.83C68.4035 100.583 68.2769 100.36 68.1169 100.16C67.9569 99.9533 67.7502 99.7833 67.4969 99.65C67.2835 99.5367 67.0302 99.4633 66.7369 99.43C66.4435 99.3967 66.1469 99.38 65.8469 99.38H64.2169V105.42ZM74.4337 103.05C74.4337 102.797 74.397 102.56 74.3237 102.34C74.257 102.113 74.1537 101.92 74.0137 101.76C73.8803 101.593 73.7103 101.463 73.5037 101.37C73.297 101.27 73.0603 101.22 72.7937 101.22C72.527 101.22 72.2903 101.27 72.0837 101.37C71.8837 101.47 71.7103 101.603 71.5637 101.77C71.4237 101.937 71.3103 102.13 71.2237 102.35C71.137 102.57 71.0803 102.803 71.0537 103.05H74.4337ZM71.0537 103.55C71.0537 103.83 71.0903 104.097 71.1637 104.35C71.237 104.597 71.3437 104.813 71.4837 105C71.6303 105.18 71.8137 105.327 72.0337 105.44C72.2537 105.547 72.507 105.6 72.7937 105.6C73.187 105.6 73.5237 105.497 73.8037 105.29C74.0837 105.083 74.2703 104.79 74.3637 104.41H75.0337C74.9603 104.657 74.8637 104.887 74.7437 105.1C74.6237 105.307 74.4737 105.49 74.2937 105.65C74.1137 105.803 73.9003 105.923 73.6537 106.01C73.407 106.097 73.1203 106.14 72.7937 106.14C72.3803 106.14 72.0237 106.07 71.7237 105.93C71.4237 105.79 71.177 105.6 70.9837 105.36C70.7903 105.113 70.647 104.827 70.5537 104.5C70.4603 104.167 70.4137 103.81 70.4137 103.43C70.4137 103.05 70.467 102.693 70.5737 102.36C70.687 102.027 70.8437 101.737 71.0437 101.49C71.2503 101.237 71.5003 101.04 71.7937 100.9C72.087 100.753 72.4203 100.68 72.7937 100.68C73.507 100.68 74.067 100.927 74.4737 101.42C74.8803 101.907 75.0803 102.617 75.0737 103.55H71.0537ZM79.6503 103.28C79.397 103.387 79.1403 103.457 78.8803 103.49C78.6203 103.523 78.3603 103.55 78.1003 103.57C77.6403 103.603 77.2803 103.707 77.0203 103.88C76.767 104.053 76.6403 104.317 76.6403 104.67C76.6403 104.83 76.6703 104.97 76.7303 105.09C76.797 105.203 76.8803 105.3 76.9803 105.38C77.087 105.453 77.207 105.51 77.3403 105.55C77.4803 105.583 77.6203 105.6 77.7603 105.6C78.0003 105.6 78.2336 105.57 78.4603 105.51C78.687 105.45 78.887 105.36 79.0603 105.24C79.2403 105.113 79.3836 104.957 79.4903 104.77C79.597 104.577 79.6503 104.35 79.6503 104.09V103.28ZM78.6403 102.98C78.7536 102.967 78.887 102.947 79.0403 102.92C79.2003 102.893 79.3303 102.857 79.4303 102.81C79.5303 102.763 79.5903 102.687 79.6103 102.58C79.637 102.467 79.6503 102.363 79.6503 102.27C79.6503 101.963 79.5503 101.713 79.3503 101.52C79.157 101.32 78.827 101.22 78.3603 101.22C78.1536 101.22 77.9636 101.24 77.7903 101.28C77.617 101.313 77.4636 101.377 77.3303 101.47C77.2036 101.557 77.097 101.677 77.0103 101.83C76.9303 101.977 76.877 102.163 76.8503 102.39H76.2403C76.2603 102.083 76.3303 101.823 76.4503 101.61C76.5703 101.39 76.7236 101.213 76.9103 101.08C77.1036 100.94 77.3236 100.84 77.5703 100.78C77.8236 100.713 78.0903 100.68 78.3703 100.68C78.6303 100.68 78.8736 100.71 79.1003 100.77C79.3336 100.823 79.5336 100.913 79.7003 101.04C79.8736 101.16 80.007 101.323 80.1003 101.53C80.2003 101.737 80.2503 101.99 80.2503 102.29V105.11C80.2503 105.343 80.2903 105.493 80.3703 105.56C80.457 105.62 80.627 105.603 80.8803 105.51V105.98C80.8336 105.993 80.7636 106.013 80.6703 106.04C80.5836 106.067 80.497 106.08 80.4103 106.08C80.317 106.08 80.227 106.07 80.1403 106.05C80.0403 106.037 79.9603 106.007 79.9003 105.96C79.8403 105.907 79.7903 105.847 79.7503 105.78C79.717 105.707 79.6936 105.63 79.6803 105.55C79.667 105.463 79.6603 105.373 79.6603 105.28C79.407 105.56 79.117 105.773 78.7903 105.92C78.4636 106.067 78.1103 106.14 77.7303 106.14C77.5036 106.14 77.2836 106.11 77.0703 106.05C76.8636 105.99 76.6803 105.897 76.5203 105.77C76.3603 105.643 76.2336 105.49 76.1403 105.31C76.047 105.123 76.0003 104.903 76.0003 104.65C76.0003 103.77 76.6036 103.25 77.8103 103.09L78.6403 102.98ZM81.927 106V98.8H82.527V106H81.927ZM84.4237 104.38C84.5171 104.827 84.6837 105.143 84.9237 105.33C85.1704 105.51 85.5204 105.6 85.9737 105.6C86.1937 105.6 86.3837 105.573 86.5437 105.52C86.7037 105.467 86.8337 105.397 86.9337 105.31C87.0404 105.217 87.1204 105.113 87.1737 105C87.2271 104.887 87.2537 104.767 87.2537 104.64C87.2537 104.387 87.1704 104.2 87.0037 104.08C86.8437 103.953 86.6404 103.857 86.3937 103.79C86.1471 103.717 85.8804 103.657 85.5937 103.61C85.3071 103.557 85.0404 103.48 84.7937 103.38C84.5471 103.28 84.3404 103.137 84.1737 102.95C84.0137 102.763 83.9337 102.5 83.9337 102.16C83.9337 101.727 84.0904 101.373 84.4037 101.1C84.7237 100.82 85.1737 100.68 85.7537 100.68C86.3137 100.68 86.7671 100.807 87.1137 101.06C87.4671 101.307 87.6804 101.723 87.7537 102.31H87.1437C87.0904 101.91 86.9371 101.63 86.6837 101.47C86.4371 101.303 86.1237 101.22 85.7437 101.22C85.3637 101.22 85.0737 101.303 84.8737 101.47C84.6737 101.63 84.5737 101.843 84.5737 102.11C84.5737 102.343 84.6537 102.523 84.8137 102.65C84.9804 102.77 85.1871 102.87 85.4337 102.95C85.6804 103.023 85.9471 103.09 86.2337 103.15C86.5204 103.21 86.7871 103.297 87.0337 103.41C87.2804 103.517 87.4837 103.663 87.6437 103.85C87.8104 104.037 87.8937 104.297 87.8937 104.63C87.8937 104.877 87.8404 105.097 87.7337 105.29C87.6271 105.477 87.4804 105.633 87.2937 105.76C87.1071 105.887 86.8837 105.98 86.6237 106.04C86.3704 106.107 86.0904 106.14 85.7837 106.14C85.4771 106.14 85.2037 106.093 84.9637 106C84.7304 105.913 84.5304 105.79 84.3637 105.63C84.1971 105.47 84.0671 105.283 83.9737 105.07C83.8804 104.857 83.8271 104.627 83.8137 104.38H84.4237Z" fill="#32384D"/>
<g clip-path="url(#clip0)">
<path d="M76.7589 51.9815C78.9515 51.8653 80.7057 49.6501 80.7057 46.9441C80.7057 44.4755 79.2457 42.4156 77.3254 41.9842V41.3403C77.5058 41.1672 77.6702 40.9753 77.8156 40.7606C77.9166 40.6115 77.9635 40.4318 77.9487 40.2518C77.692 37.1635 76.2901 34.2994 73.9998 32.1875C71.6972 30.0642 68.7004 28.8945 65.5611 28.8945H62.1292C55.2729 28.8945 49.695 34.4535 49.695 41.2859V41.4597C49.695 41.7053 49.8095 41.9372 50.0048 42.0872C50.2833 42.301 50.6042 42.4807 50.9577 42.6207C50.9866 42.6323 51.0154 42.6409 51.0442 42.6516V48.4153C51.0442 51.9403 52.2217 54.898 54.4489 56.9686C55.0978 57.5718 55.8307 58.0888 56.63 58.5148C56.2926 58.8477 55.9836 59.2049 55.7051 59.5843C54.7254 59.9897 53.6641 60.2031 52.5682 60.2031C52.3684 60.2031 52.1698 60.1945 51.9725 60.1797V57.674C51.9725 56.8656 51.312 56.2081 50.5004 56.2081H49.3155C49.3044 54.9631 48.2823 53.9533 47.0269 53.9533H42.6681C41.4128 53.9533 40.3902 54.9631 40.3791 56.2081H39.1946C38.3826 56.2081 37.7226 56.8656 37.7226 57.674V68.7606H32.7923C31.9807 68.7606 31.3203 69.4181 31.3203 70.2264V81.4288C31.3203 82.2371 31.9807 82.8946 32.7923 82.8946H61.4436C61.5038 82.8946 61.5627 82.8876 61.6196 82.8744C62.254 82.8061 62.8283 82.5428 63.2828 82.1481C63.7368 82.542 64.3098 82.8052 64.9435 82.874C65.0008 82.8876 65.0609 82.8942 65.1223 82.8942H74.2215C76.2938 82.8942 77.9796 81.2207 77.9796 79.1633C77.9796 77.3122 76.6143 75.7726 74.8312 75.4826V73.9294C74.8312 73.4926 74.4773 73.1383 74.0402 73.1383C73.6031 73.1383 73.2492 73.4926 73.2492 73.9294V75.4327H68.1236C67.6935 74.2713 66.5717 73.4618 65.2751 73.4618C64.513 73.4618 63.8163 73.7427 63.2824 74.205C62.7488 73.7427 62.0522 73.4618 61.2904 73.4618C59.9939 73.4618 58.872 74.2713 58.4419 75.4327H58.238V73.243C58.8065 73.3159 59.3759 73.353 59.9436 73.353C64.9348 73.353 69.7493 70.5894 72.0931 65.847C72.4388 65.1474 72.4903 64.3568 72.2373 63.621C71.984 62.8827 71.4558 62.2882 70.75 61.9471C69.3015 61.2475 67.544 61.8495 66.832 63.2894C66.1539 64.6613 65.0869 65.7844 63.7467 66.5371C63.3656 66.7509 63.23 67.2333 63.4439 67.614C63.6581 67.9951 64.1401 68.1306 64.5212 67.9168C66.1407 67.0071 67.4302 65.6496 68.2505 63.9901C68.5789 63.3252 69.3917 63.0483 70.0616 63.3717C70.3846 63.5275 70.6256 63.7986 70.741 64.1348C70.8555 64.4685 70.832 64.8277 70.6747 65.1462C68.3387 69.8729 63.2218 72.3667 58.238 71.6424V71.4718C58.6322 70.9519 58.891 70.3236 58.9606 69.6323C58.9804 69.4383 58.9833 69.2442 58.9713 69.0518C59.5114 69.1112 60.0569 69.1243 60.602 69.0873C61.0378 69.0572 61.3666 68.6794 61.3369 68.2435C61.3069 67.8076 60.9295 67.4805 60.4932 67.5085C59.8039 67.5563 59.1134 67.5061 58.4411 67.3676C58.418 67.3301 58.3945 67.2926 58.3702 67.2556L57.5623 65.1433C57.3192 64.5002 56.6947 64.0684 56.0075 64.0684C55.8727 64.0684 55.7397 64.0861 55.6091 64.1183C55.8122 62.1123 56.74 60.4174 58.1959 59.2016C58.9062 59.4525 59.6536 59.6404 60.4289 59.7627C60.7606 61.2566 62.1041 62.3784 63.7067 62.3784C65.2718 62.3784 66.5898 61.3089 66.9598 59.8674C68.1533 59.7446 69.3007 59.4393 70.3698 58.9762C72.1788 60.344 73.2488 62.3999 73.2488 64.8594V70.2384C73.2488 70.6751 73.6031 71.0294 74.0398 71.0294C74.4769 71.0294 74.8308 70.6751 74.8308 70.2384V64.8594C74.8308 62.1786 73.8157 59.8736 71.8925 58.1782C74.1477 56.7738 75.9028 54.6067 76.7589 51.9815ZM63.8216 76.4771C63.8216 75.6869 64.4738 75.0438 65.2756 75.0438C66.0155 75.0438 66.6359 75.5901 66.7192 76.3139C66.7653 76.7136 67.1031 77.0147 67.5048 77.0147H74.2215C75.4216 77.0147 76.3976 77.9788 76.3976 79.1637C76.3976 80.3485 75.4216 81.3126 74.2215 81.3126H65.2315C65.2129 81.3101 65.1944 81.3081 65.1754 81.3068C64.4161 81.2562 63.8216 80.6287 63.8216 79.8793V76.4771ZM58.2384 77.0147H59.0611C59.4632 77.0147 59.8011 76.7136 59.8468 76.3139C59.93 75.5901 60.5509 75.0438 61.2908 75.0438C61.7296 75.0438 62.123 75.2374 62.39 75.5419C62.2928 75.8364 62.2396 76.1508 62.2396 76.4771V79.8793C62.2396 80.2039 62.2928 80.5175 62.39 80.8116C62.144 81.0922 61.791 81.28 61.3905 81.3068C61.3715 81.3081 61.353 81.3101 61.3345 81.3126H58.2384V77.0147ZM51.9725 61.7658C52.1702 61.7778 52.3688 61.7852 52.5682 61.7852C53.264 61.7852 53.9471 61.7106 54.6112 61.5701C54.2417 62.514 54.0266 63.5419 53.9908 64.6337C53.5219 64.6852 53.0473 64.7115 52.5682 64.7115C52.3688 64.7115 52.1702 64.7058 51.9725 64.6963V61.7658ZM52.1006 73.7559C52.1929 73.7559 52.3919 73.8684 52.4384 73.9471L53.4255 75.6412C53.4696 75.7178 53.4696 75.937 53.4255 76.014L52.4384 77.7077C52.3919 77.7864 52.1929 77.8993 52.1006 77.8993H50.1263C50.0336 77.8993 49.8346 77.7864 49.7881 77.7077L48.801 76.0136C48.7569 75.937 48.7569 75.7178 48.801 75.6412L49.7881 73.9471C49.8346 73.8684 50.0336 73.7555 50.1263 73.7555H52.1006V73.7559ZM42.6681 55.5353H47.0269C47.4097 55.5353 47.722 55.8353 47.7331 56.2081H41.962C41.9731 55.8353 42.285 55.5353 42.6681 55.5353ZM39.3046 57.7901H50.3904V68.7606H39.3046V57.7901ZM43.9885 81.3126H32.9023V70.3426H43.9885V81.3126ZM56.6563 81.3126H45.5706V70.3426H50.9066C50.8696 70.4534 50.8428 70.5692 50.8308 70.6899L50.8086 70.9095C50.7604 71.3927 50.9338 71.8476 51.2461 72.1735H50.1263C49.4684 72.1735 48.7511 72.5846 48.4211 73.1507L47.4344 74.8448C47.1023 75.4142 47.1023 76.241 47.4344 76.8104L48.4211 78.5045C48.7515 79.0706 49.4684 79.4817 50.1263 79.4817H52.1006C52.7585 79.4817 53.4758 79.0706 53.8054 78.5041L54.7925 76.8104C55.1242 76.241 55.1242 75.4146 54.7925 74.8448L53.8058 73.1507C53.7296 73.0209 53.6328 72.8994 53.5215 72.7886L54.8601 72.9233C54.9882 72.9361 55.118 72.9426 55.2461 72.9426C55.7446 72.9426 56.2209 72.8471 56.6563 72.6732V81.3126ZM55.6808 66.8057C55.8439 66.5894 55.8847 66.3043 55.7891 66.0505L55.7104 65.8433C55.7026 65.8227 55.7034 65.8021 55.7125 65.7819C55.7215 65.7621 55.7368 65.7477 55.7578 65.7399L55.979 65.6562C55.9889 65.6525 55.9984 65.6505 56.0079 65.6505C56.0132 65.6505 56.0635 65.6521 56.0841 65.7057L56.9262 67.9069C56.9493 67.9683 56.9802 68.026 57.0177 68.0795C57.3052 68.4882 57.4362 68.9839 57.3872 69.4741C57.2789 70.5498 56.3585 71.361 55.2461 71.361C55.1707 71.361 55.0945 71.3569 55.0187 71.3495L52.3976 71.0858C52.3886 71.085 52.382 71.0768 52.3828 71.0681L52.405 70.8489C52.4063 70.837 52.4174 70.8341 52.4228 70.8341H52.4232L54.3163 71.0244C54.7501 71.0693 55.1386 70.7517 55.1827 70.317L55.1967 70.1766C55.2181 69.9677 55.1551 69.7588 55.0224 69.5965C54.8897 69.4337 54.6978 69.3307 54.4889 69.3097L52.178 69.077C52.1706 69.0761 52.1628 69.0667 52.1636 69.0592L52.1855 68.8401C52.1867 68.8281 52.1986 68.8265 52.2036 68.8252L54.5144 69.058C54.7233 69.0786 54.9318 69.016 55.0945 68.8833C55.2568 68.7507 55.3598 68.5587 55.3808 68.3502L55.3948 68.2093C55.4385 67.7747 55.1217 67.3866 54.687 67.3429L52.7935 67.1526C52.7857 67.1517 52.7779 67.1423 52.7787 67.1344L52.801 66.9153C52.8022 66.9033 52.8141 66.9021 52.8187 66.9008L54.9647 67.1167C54.9701 67.1171 54.98 67.118 54.9849 67.1188C55.2556 67.141 55.518 67.0224 55.6808 66.8057ZM63.7071 60.7964C63.0529 60.7964 62.4814 60.445 62.1741 59.9238C62.315 59.9279 62.4559 59.9304 62.598 59.9304H65.236C64.9278 60.4483 64.3585 60.7964 63.7071 60.7964ZM65.7708 58.3484H62.598C56.5406 58.3484 52.6263 54.4497 52.6263 48.4153V42.8799C53.4227 42.8098 54.1902 42.4559 54.898 41.8198C55.029 41.7024 55.1575 41.5759 55.2848 41.4396C55.3297 41.5899 55.3854 41.7341 55.4509 41.8709C55.7871 42.5713 56.3836 43.064 57.1763 43.2952C58.4637 43.6717 59.7644 43.1188 61.0568 41.6501C61.3802 42.4193 62.0402 42.9845 63.01 43.2906C63.4356 43.4245 63.8575 43.4913 64.2744 43.4909C65.6587 43.4909 66.9841 42.7571 68.1632 41.3226C68.5632 40.8356 68.8945 40.3301 69.1536 39.8847C69.4877 40.3453 69.9331 40.8574 70.4979 41.3057C70.8403 41.5768 71.338 41.5195 71.6095 41.1771C71.881 40.8348 71.8233 40.3375 71.4809 40.066C70.3698 39.1848 69.8321 37.9405 69.828 37.9302C69.7048 37.6357 69.4169 37.4441 69.098 37.4441C69.0959 37.4441 69.0934 37.4441 69.0914 37.4441C68.77 37.447 68.4821 37.6443 68.363 37.9426C68.344 37.9904 66.4275 42.7093 63.4859 41.7815C62.7608 41.5529 62.0847 41.0993 62.5638 39.467C62.6759 39.085 62.4868 38.6792 62.1218 38.5198C61.7576 38.36 61.3308 38.4963 61.126 38.8379C59.8418 40.981 58.5651 42.0534 57.6196 41.777C57.2554 41.6703 57.0197 41.4828 56.8772 41.1866C56.5966 40.602 56.6942 39.6116 57.138 38.5375C57.3015 38.1412 57.1198 37.6868 56.728 37.5125C56.3371 37.3386 55.8773 37.5075 55.6927 37.8948C53.7271 42.0163 52.0816 41.3642 51.5407 41.1499C51.4492 41.1137 51.3627 41.0737 51.2803 41.0305C51.4171 35.1881 56.2312 30.4766 62.1292 30.4766H65.5611C71.0611 30.4766 75.7396 34.6727 76.3432 40.0841C76.1232 40.3338 75.8521 40.5134 75.52 40.6308C75.1925 40.747 74.8691 40.8306 74.5576 40.8797C74.1263 40.9476 73.8317 41.3526 73.8997 41.7844C73.9681 42.2157 74.3727 42.5107 74.8044 42.4423C75.1126 42.3933 75.4269 42.32 75.7433 42.2228V42.6937C75.7433 42.9046 75.8274 43.1069 75.9769 43.2552C76.1253 43.4023 76.3255 43.4847 76.5344 43.4847C76.5504 43.4851 76.5661 43.4843 76.5854 43.4834C77.9858 43.4896 79.1237 45.0395 79.1237 46.9441C79.1237 48.8521 77.9813 50.4044 76.5772 50.4044C76.487 50.4044 76.3947 50.3974 76.295 50.3822C75.8954 50.3212 75.5151 50.5709 75.4113 50.961C74.2569 55.3108 70.2927 58.3484 65.7708 58.3484Z" fill="#32384D"/>
<path d="M68.2002 45.4108C67.7631 45.4108 67.4092 45.7647 67.4092 46.2018V47.4992C67.4092 47.9363 67.7631 48.2902 68.2002 48.2902C68.6369 48.2902 68.9912 47.9363 68.9912 47.4992V46.2018C68.9912 45.7647 68.6369 45.4108 68.2002 45.4108Z" fill="black"/>
<path d="M56.5127 45.4108C56.0756 45.4108 55.7217 45.7647 55.7217 46.2018V47.4992C55.7217 47.9363 56.0756 48.2902 56.5127 48.2902C56.9494 48.2902 57.3037 47.9363 57.3037 47.4992V46.2018C57.3037 45.7647 56.9494 45.4108 56.5127 45.4108Z" fill="black"/>
<path d="M62.3558 49.4289H62.8687C63.3058 49.4289 63.6597 49.0746 63.6597 48.6379C63.6597 48.2008 63.3058 47.8469 62.8687 47.8469H62.6343V47.1131C62.6343 46.676 62.28 46.3221 61.8433 46.3221C61.4061 46.3221 61.0522 46.676 61.0522 47.1131V48.1105C61.0522 48.8373 61.6369 49.4289 62.3558 49.4289Z" fill="black"/>
<path d="M65.4756 50.6809H59.5936C58.782 50.6809 58.1216 51.3384 58.1216 52.1467C58.1216 54.5618 60.1012 56.5266 62.5344 56.5266C64.968 56.5266 66.9476 54.5618 66.9476 52.1467C66.9476 51.3388 66.2872 50.6809 65.4756 50.6809ZM62.5344 54.945C61.0129 54.945 59.7675 53.7523 59.7057 52.2629H65.3635C65.3013 53.7523 64.0563 54.945 62.5344 54.945Z" fill="black"/>
<path d="M47.907 61.4737L46.5206 61.2755L45.9026 60.0416C45.702 59.6408 45.2978 59.3915 44.8475 59.3915C44.3972 59.3915 43.9931 59.6408 43.7924 60.0412L43.1745 61.2755L41.7865 61.4741C41.3411 61.5384 40.9769 61.8428 40.8356 62.2697C40.6951 62.6944 40.8138 63.1699 41.1368 63.4797L42.1334 64.4367L41.8989 65.7856C41.8219 66.226 42.0081 66.6788 42.3694 66.9363C42.5713 67.0821 42.8103 67.1591 43.0599 67.1591C43.2503 67.1591 43.4398 67.113 43.6046 67.0265L44.8475 66.3825L46.0864 67.0244C46.2545 67.1126 46.444 67.1591 46.6347 67.1591C46.8848 67.1591 47.1238 67.0821 47.3224 66.9387C47.687 66.6784 47.8732 66.2256 47.7961 65.7856L47.5617 64.4367L48.5575 63.4801C48.8809 63.1699 48.9996 62.6944 48.8591 62.2697C48.719 61.8433 48.3544 61.5388 47.907 61.4737ZM46.1622 63.5876C45.9723 63.7697 45.8858 64.0342 45.9311 64.2934L46.0971 65.2483L45.2113 64.7894C45.0976 64.7301 44.9724 64.7008 44.8475 64.7008C44.7227 64.7008 44.5979 64.7301 44.4838 64.7894L43.5984 65.2483L43.7644 64.2934C43.8093 64.0342 43.7228 63.7697 43.5329 63.5872L42.8395 62.9214L43.8085 62.783C44.0652 62.7459 44.2872 62.5857 44.4034 62.3541L44.8475 61.4675L45.2917 62.3541C45.4078 62.5861 45.6303 62.7463 45.887 62.783L46.8556 62.9214L46.1622 63.5876Z" fill="black"/>
<path d="M37.6655 79.2004C37.8744 79.4047 38.1512 79.5176 38.445 79.5176C38.7383 79.5176 39.0152 79.4052 39.2245 79.2008L42.0556 76.4314C42.541 75.9568 42.8083 75.324 42.8083 74.6492C42.8083 73.9743 42.541 73.3415 42.0556 72.8669C41.5744 72.3964 40.9363 72.1377 40.2586 72.1377C39.5808 72.1377 38.9423 72.3968 38.4615 72.8669L38.445 72.883L38.4289 72.8669C37.9481 72.3968 37.3095 72.1377 36.6318 72.1377C35.9537 72.1377 35.3155 72.3964 34.8347 72.8669C34.3494 73.3415 34.082 73.9743 34.082 74.6492C34.082 75.324 34.3494 75.9568 34.8347 76.4318L37.6655 79.2004ZM35.9405 73.9978C36.1238 73.8182 36.3694 73.7193 36.6314 73.7193C36.8934 73.7193 37.139 73.8182 37.3227 73.9978L37.8917 74.5548C38.199 74.8551 38.6905 74.8551 38.9979 74.5548L39.5672 73.9982C39.751 73.8186 39.9961 73.7193 40.2586 73.7193C40.5206 73.7193 40.7657 73.8182 40.9495 73.9978C41.1279 74.1721 41.2259 74.4036 41.2259 74.6492C41.2263 74.8947 41.1279 75.1262 40.9495 75.3005L38.445 77.7498L35.9405 75.3005C35.7621 75.1262 35.6637 74.8947 35.6641 74.6492C35.6641 74.4036 35.7621 74.1721 35.9405 73.9978Z" fill="black"/>
<path d="M76.5102 49.4223C76.6371 49.4223 76.7661 49.3918 76.8855 49.3271C78.5751 48.4142 78.2987 46.5017 77.9167 45.618C77.7433 45.2171 77.2777 45.0322 76.8765 45.206C76.4756 45.3795 76.291 45.845 76.4645 46.2459C76.4863 46.2957 76.9844 47.4757 76.1332 47.9354C75.7489 48.1431 75.6059 48.623 75.8135 49.0074C75.9565 49.2719 76.2288 49.4223 76.5102 49.4223Z" fill="black"/>
</g>
<defs>
<clipPath id="clip0">
<rect width="54" height="54" fill="white" transform="translate(29 29)"/>
</clipPath>
</defs>
</svg>
