<svg width="110" height="140" viewBox="0 0 110 140" fill="none" xmlns="http://www.w3.org/2000/svg">
<rect width="110" height="140" rx="4" fill="#F9F9F9"/>
<path d="M12.81 106V98.8H15.27C15.47 98.8 15.6667 98.8067 15.86 98.82C16.0533 98.8267 16.2433 98.85 16.43 98.89C16.6167 98.9233 16.7967 98.9767 16.97 99.05C17.15 99.1233 17.3233 99.22 17.49 99.34C17.73 99.5133 17.9267 99.7267 18.08 99.98C18.2333 100.227 18.3533 100.49 18.44 100.77C18.5333 101.043 18.5967 101.323 18.63 101.61C18.67 101.89 18.69 102.15 18.69 102.39C18.69 102.63 18.6733 102.873 18.64 103.12C18.6133 103.367 18.5667 103.61 18.5 103.85C18.4333 104.083 18.3433 104.31 18.23 104.53C18.1233 104.743 17.9867 104.94 17.82 105.12C17.6533 105.307 17.47 105.457 17.27 105.57C17.0767 105.683 16.87 105.773 16.65 105.84C16.4367 105.9 16.2133 105.943 15.98 105.97C15.7467 105.99 15.51 106 15.27 106H12.81ZM13.49 105.42H15.12C15.4267 105.42 15.7133 105.403 15.98 105.37C16.2533 105.33 16.53 105.237 16.81 105.09C17.05 104.97 17.2467 104.807 17.4 104.6C17.5533 104.393 17.6733 104.17 17.76 103.93C17.8533 103.683 17.9167 103.427 17.95 103.16C17.99 102.893 18.01 102.637 18.01 102.39C18.01 102.13 17.9933 101.867 17.96 101.6C17.9267 101.327 17.8633 101.07 17.77 100.83C17.6767 100.583 17.55 100.36 17.39 100.16C17.23 99.9533 17.0233 99.7833 16.77 99.65C16.5567 99.5367 16.3033 99.4633 16.01 99.43C15.7167 99.3967 15.42 99.38 15.12 99.38H13.49V105.42ZM23.7068 103.05C23.7068 102.797 23.6701 102.56 23.5968 102.34C23.5301 102.113 23.4268 101.92 23.2868 101.76C23.1535 101.593 22.9835 101.463 22.7768 101.37C22.5701 101.27 22.3335 101.22 22.0668 101.22C21.8001 101.22 21.5635 101.27 21.3568 101.37C21.1568 101.47 20.9835 101.603 20.8368 101.77C20.6968 101.937 20.5835 102.13 20.4968 102.35C20.4101 102.57 20.3535 102.803 20.3268 103.05H23.7068ZM20.3268 103.55C20.3268 103.83 20.3635 104.097 20.4368 104.35C20.5101 104.597 20.6168 104.813 20.7568 105C20.9035 105.18 21.0868 105.327 21.3068 105.44C21.5268 105.547 21.7801 105.6 22.0668 105.6C22.4601 105.6 22.7968 105.497 23.0768 105.29C23.3568 105.083 23.5435 104.79 23.6368 104.41H24.3068C24.2335 104.657 24.1368 104.887 24.0168 105.1C23.8968 105.307 23.7468 105.49 23.5668 105.65C23.3868 105.803 23.1735 105.923 22.9268 106.01C22.6801 106.097 22.3935 106.14 22.0668 106.14C21.6535 106.14 21.2968 106.07 20.9968 105.93C20.6968 105.79 20.4501 105.6 20.2568 105.36C20.0635 105.113 19.9201 104.827 19.8268 104.5C19.7335 104.167 19.6868 103.81 19.6868 103.43C19.6868 103.05 19.7401 102.693 19.8468 102.36C19.9601 102.027 20.1168 101.737 20.3168 101.49C20.5235 101.237 20.7735 101.04 21.0668 100.9C21.3601 100.753 21.6935 100.68 22.0668 100.68C22.7801 100.68 23.3401 100.927 23.7468 101.42C24.1535 101.907 24.3535 102.617 24.3468 103.55H20.3268ZM25.8834 104.38C25.9768 104.827 26.1434 105.143 26.3834 105.33C26.6301 105.51 26.9801 105.6 27.4334 105.6C27.6534 105.6 27.8434 105.573 28.0034 105.52C28.1634 105.467 28.2934 105.397 28.3934 105.31C28.5001 105.217 28.5801 105.113 28.6334 105C28.6868 104.887 28.7134 104.767 28.7134 104.64C28.7134 104.387 28.6301 104.2 28.4634 104.08C28.3034 103.953 28.1001 103.857 27.8534 103.79C27.6068 103.717 27.3401 103.657 27.0534 103.61C26.7668 103.557 26.5001 103.48 26.2534 103.38C26.0068 103.28 25.8001 103.137 25.6334 102.95C25.4734 102.763 25.3934 102.5 25.3934 102.16C25.3934 101.727 25.5501 101.373 25.8634 101.1C26.1834 100.82 26.6334 100.68 27.2134 100.68C27.7734 100.68 28.2268 100.807 28.5734 101.06C28.9268 101.307 29.1401 101.723 29.2134 102.31H28.6034C28.5501 101.91 28.3968 101.63 28.1434 101.47C27.8968 101.303 27.5834 101.22 27.2034 101.22C26.8234 101.22 26.5334 101.303 26.3334 101.47C26.1334 101.63 26.0334 101.843 26.0334 102.11C26.0334 102.343 26.1134 102.523 26.2734 102.65C26.4401 102.77 26.6468 102.87 26.8934 102.95C27.1401 103.023 27.4068 103.09 27.6934 103.15C27.9801 103.21 28.2468 103.297 28.4934 103.41C28.7401 103.517 28.9434 103.663 29.1034 103.85C29.2701 104.037 29.3534 104.297 29.3534 104.63C29.3534 104.877 29.3001 105.097 29.1934 105.29C29.0868 105.477 28.9401 105.633 28.7534 105.76C28.5668 105.887 28.3434 105.98 28.0834 106.04C27.8301 106.107 27.5501 106.14 27.2434 106.14C26.9368 106.14 26.6634 106.093 26.4234 106C26.1901 105.913 25.9901 105.79 25.8234 105.63C25.6568 105.47 25.5268 105.283 25.4334 105.07C25.3401 104.857 25.2868 104.627 25.2734 104.38H25.8834ZM30.5134 106V98.8H31.1134V103.28L33.6534 100.82H34.4734L32.5334 102.69L34.7034 106H34.0334L32.0934 103.11L31.1134 104.04V106H30.5134ZM37.3934 106.02C37.3201 106.033 37.2234 106.057 37.1034 106.09C36.9834 106.123 36.8501 106.14 36.7034 106.14C36.4034 106.14 36.1734 106.067 36.0134 105.92C35.8601 105.767 35.7834 105.497 35.7834 105.11V101.32H35.0534V100.82H35.7834V99.38H36.3834V100.82H37.3534V101.32H36.3834V104.87C36.3834 104.997 36.3868 105.107 36.3934 105.2C36.4001 105.293 36.4201 105.37 36.4534 105.43C36.4868 105.49 36.5368 105.533 36.6034 105.56C36.6768 105.587 36.7768 105.6 36.9034 105.6C36.9834 105.6 37.0634 105.593 37.1434 105.58C37.2301 105.567 37.3134 105.55 37.3934 105.53V106.02ZM40.4366 106.14C40.1033 106.133 39.79 106.073 39.4966 105.96C39.21 105.847 38.9566 105.677 38.7366 105.45C38.5233 105.223 38.3533 104.94 38.2266 104.6C38.1 104.26 38.0366 103.863 38.0366 103.41C38.0366 103.03 38.0866 102.677 38.1866 102.35C38.2866 102.017 38.4366 101.727 38.6366 101.48C38.8366 101.233 39.0866 101.04 39.3866 100.9C39.6866 100.753 40.0366 100.68 40.4366 100.68C40.8433 100.68 41.1966 100.753 41.4966 100.9C41.7966 101.04 42.0466 101.233 42.2466 101.48C42.4466 101.72 42.5933 102.007 42.6866 102.34C42.7866 102.673 42.8366 103.03 42.8366 103.41C42.8366 103.823 42.78 104.197 42.6666 104.53C42.5533 104.863 42.39 105.15 42.1766 105.39C41.97 105.63 41.7166 105.817 41.4166 105.95C41.1233 106.077 40.7966 106.14 40.4366 106.14ZM42.1966 103.41C42.1966 103.103 42.1633 102.817 42.0966 102.55C42.03 102.283 41.9266 102.053 41.7866 101.86C41.6466 101.66 41.4666 101.503 41.2466 101.39C41.0266 101.277 40.7566 101.22 40.4366 101.22C40.1233 101.22 39.8533 101.283 39.6266 101.41C39.4066 101.53 39.2266 101.693 39.0866 101.9C38.9466 102.1 38.8433 102.333 38.7766 102.6C38.71 102.86 38.6766 103.13 38.6766 103.41C38.6766 103.73 38.7133 104.027 38.7866 104.3C38.8666 104.567 38.98 104.797 39.1266 104.99C39.2733 105.183 39.4566 105.333 39.6766 105.44C39.8966 105.547 40.15 105.6 40.4366 105.6C40.75 105.6 41.0166 105.54 41.2366 105.42C41.4633 105.293 41.6466 105.127 41.7866 104.92C41.9266 104.713 42.03 104.48 42.0966 104.22C42.1633 103.96 42.1966 103.69 42.1966 103.41ZM44.6233 103.43C44.6233 103.723 44.6633 104.003 44.7433 104.27C44.8233 104.53 44.9366 104.76 45.0833 104.96C45.2366 105.153 45.4199 105.31 45.6333 105.43C45.8533 105.543 46.0999 105.6 46.3733 105.6C46.6799 105.6 46.9466 105.54 47.1733 105.42C47.4066 105.293 47.5966 105.123 47.7433 104.91C47.8899 104.697 47.9966 104.45 48.0633 104.17C48.1299 103.883 48.1566 103.577 48.1433 103.25C48.1433 102.923 48.0966 102.637 48.0033 102.39C47.9166 102.137 47.7933 101.923 47.6333 101.75C47.4733 101.577 47.2866 101.447 47.0733 101.36C46.8599 101.267 46.6266 101.22 46.3733 101.22C46.0933 101.22 45.8433 101.277 45.6233 101.39C45.4033 101.503 45.2199 101.66 45.0733 101.86C44.9266 102.053 44.8133 102.287 44.7333 102.56C44.6599 102.827 44.6233 103.117 44.6233 103.43ZM44.6233 108.04H44.0233V100.82H44.6233V101.73H44.6433C44.7299 101.563 44.8399 101.413 44.9733 101.28C45.1133 101.147 45.2633 101.037 45.4233 100.95C45.5899 100.863 45.7599 100.797 45.9333 100.75C46.1066 100.703 46.2766 100.68 46.4433 100.68C46.8633 100.68 47.2199 100.75 47.5133 100.89C47.8066 101.03 48.0466 101.223 48.2333 101.47C48.4266 101.71 48.5666 101.997 48.6533 102.33C48.7399 102.663 48.7833 103.02 48.7833 103.4C48.7833 103.76 48.7366 104.107 48.6433 104.44C48.5499 104.773 48.4066 105.067 48.2133 105.32C48.0266 105.567 47.7866 105.767 47.4933 105.92C47.2066 106.067 46.8666 106.14 46.4733 106.14C46.1066 106.14 45.7533 106.06 45.4133 105.9C45.0799 105.733 44.8166 105.49 44.6233 105.17V108.04ZM58.0898 100.89C57.9498 100.277 57.6898 99.84 57.3098 99.58C56.9298 99.32 56.4331 99.19 55.8198 99.19C55.3864 99.19 55.0131 99.2767 54.6998 99.45C54.3864 99.6233 54.1264 99.8567 53.9198 100.15C53.7198 100.443 53.5698 100.783 53.4698 101.17C53.3764 101.55 53.3298 101.953 53.3298 102.38C53.3298 102.78 53.3698 103.173 53.4498 103.56C53.5364 103.947 53.6764 104.293 53.8698 104.6C54.0631 104.9 54.3231 105.143 54.6498 105.33C54.9764 105.517 55.3864 105.61 55.8798 105.61C56.1864 105.61 56.4664 105.56 56.7198 105.46C56.9731 105.36 57.1931 105.223 57.3798 105.05C57.5731 104.87 57.7331 104.66 57.8598 104.42C57.9931 104.18 58.0931 103.917 58.1598 103.63H58.8698C58.7898 103.977 58.6731 104.307 58.5198 104.62C58.3664 104.927 58.1631 105.197 57.9098 105.43C57.6631 105.663 57.3598 105.85 56.9998 105.99C56.6464 106.123 56.2298 106.19 55.7498 106.19C55.1964 106.19 54.7231 106.09 54.3298 105.89C53.9364 105.683 53.6131 105.407 53.3598 105.06C53.1131 104.713 52.9331 104.313 52.8198 103.86C52.7064 103.4 52.6498 102.913 52.6498 102.4C52.6498 101.713 52.7331 101.13 52.8998 100.65C53.0731 100.17 53.3098 99.78 53.6098 99.48C53.9098 99.1733 54.2631 98.9533 54.6698 98.82C55.0764 98.68 55.5198 98.61 55.9998 98.61C56.3664 98.61 56.7064 98.66 57.0198 98.76C57.3398 98.8533 57.6198 98.9967 57.8598 99.19C58.1064 99.3833 58.3064 99.6233 58.4598 99.91C58.6198 100.19 58.7298 100.517 58.7898 100.89H58.0898ZM62.1866 106.14C61.8532 106.133 61.5399 106.073 61.2466 105.96C60.9599 105.847 60.7066 105.677 60.4866 105.45C60.2732 105.223 60.1032 104.94 59.9766 104.6C59.8499 104.26 59.7866 103.863 59.7866 103.41C59.7866 103.03 59.8366 102.677 59.9366 102.35C60.0366 102.017 60.1866 101.727 60.3866 101.48C60.5866 101.233 60.8366 101.04 61.1366 100.9C61.4366 100.753 61.7866 100.68 62.1866 100.68C62.5932 100.68 62.9466 100.753 63.2466 100.9C63.5466 101.04 63.7966 101.233 63.9966 101.48C64.1966 101.72 64.3432 102.007 64.4366 102.34C64.5366 102.673 64.5866 103.03 64.5866 103.41C64.5866 103.823 64.5299 104.197 64.4166 104.53C64.3032 104.863 64.1399 105.15 63.9266 105.39C63.7199 105.63 63.4666 105.817 63.1666 105.95C62.8732 106.077 62.5466 106.14 62.1866 106.14ZM63.9466 103.41C63.9466 103.103 63.9132 102.817 63.8466 102.55C63.7799 102.283 63.6766 102.053 63.5366 101.86C63.3966 101.66 63.2166 101.503 62.9966 101.39C62.7766 101.277 62.5066 101.22 62.1866 101.22C61.8732 101.22 61.6032 101.283 61.3766 101.41C61.1566 101.53 60.9766 101.693 60.8366 101.9C60.6966 102.1 60.5932 102.333 60.5266 102.6C60.4599 102.86 60.4266 103.13 60.4266 103.41C60.4266 103.73 60.4632 104.027 60.5366 104.3C60.6166 104.567 60.7299 104.797 60.8766 104.99C61.0232 105.183 61.2066 105.333 61.4266 105.44C61.6466 105.547 61.8999 105.6 62.1866 105.6C62.4999 105.6 62.7666 105.54 62.9866 105.42C63.2132 105.293 63.3966 105.127 63.5366 104.92C63.6766 104.713 63.7799 104.48 63.8466 104.22C63.9132 103.96 63.9466 103.69 63.9466 103.41ZM66.2232 106H65.6232V100.82H66.2232V101.6H66.2432C66.3965 101.3 66.6165 101.073 66.9032 100.92C67.1899 100.76 67.5032 100.68 67.8432 100.68C68.0832 100.68 68.2865 100.707 68.4532 100.76C68.6199 100.813 68.7599 100.887 68.8732 100.98C68.9932 101.067 69.0899 101.17 69.1632 101.29C69.2432 101.41 69.3099 101.54 69.3632 101.68C69.5365 101.34 69.7665 101.09 70.0532 100.93C70.3465 100.763 70.6799 100.68 71.0532 100.68C71.4065 100.68 71.6865 100.74 71.8932 100.86C72.1065 100.973 72.2699 101.127 72.3832 101.32C72.4965 101.507 72.5699 101.723 72.6032 101.97C72.6432 102.217 72.6632 102.47 72.6632 102.73V106H72.0632V102.42C72.0632 102.047 71.9832 101.753 71.8232 101.54C71.6699 101.327 71.3799 101.22 70.9532 101.22C70.7332 101.22 70.5199 101.27 70.3132 101.37C70.1132 101.463 69.9365 101.61 69.7832 101.81C69.7165 101.897 69.6599 102 69.6132 102.12C69.5732 102.233 69.5399 102.353 69.5132 102.48C69.4865 102.607 69.4665 102.733 69.4532 102.86C69.4465 102.987 69.4432 103.103 69.4432 103.21V106H68.8432V102.42C68.8432 102.047 68.7632 101.753 68.6032 101.54C68.4499 101.327 68.1599 101.22 67.7332 101.22C67.5132 101.22 67.2999 101.27 67.0932 101.37C66.8932 101.463 66.7165 101.61 66.5632 101.81C66.4965 101.897 66.4399 102 66.3932 102.12C66.3532 102.233 66.3199 102.353 66.2932 102.48C66.2665 102.607 66.2465 102.733 66.2332 102.86C66.2265 102.987 66.2232 103.103 66.2232 103.21V106ZM74.7233 103.43C74.7233 103.723 74.7633 104.003 74.8433 104.27C74.9233 104.53 75.0366 104.76 75.1833 104.96C75.3366 105.153 75.5199 105.31 75.7333 105.43C75.9533 105.543 76.1999 105.6 76.4733 105.6C76.7799 105.6 77.0466 105.54 77.2733 105.42C77.5066 105.293 77.6966 105.123 77.8433 104.91C77.9899 104.697 78.0966 104.45 78.1633 104.17C78.2299 103.883 78.2566 103.577 78.2433 103.25C78.2433 102.923 78.1966 102.637 78.1033 102.39C78.0166 102.137 77.8933 101.923 77.7333 101.75C77.5733 101.577 77.3866 101.447 77.1733 101.36C76.9599 101.267 76.7266 101.22 76.4733 101.22C76.1933 101.22 75.9433 101.277 75.7233 101.39C75.5033 101.503 75.3199 101.66 75.1733 101.86C75.0266 102.053 74.9133 102.287 74.8333 102.56C74.7599 102.827 74.7233 103.117 74.7233 103.43ZM74.7233 108.04H74.1233V100.82H74.7233V101.73H74.7433C74.8299 101.563 74.9399 101.413 75.0733 101.28C75.2133 101.147 75.3633 101.037 75.5233 100.95C75.6899 100.863 75.8599 100.797 76.0333 100.75C76.2066 100.703 76.3766 100.68 76.5433 100.68C76.9633 100.68 77.3199 100.75 77.6133 100.89C77.9066 101.03 78.1466 101.223 78.3333 101.47C78.5266 101.71 78.6666 101.997 78.7533 102.33C78.8399 102.663 78.8833 103.02 78.8833 103.4C78.8833 103.76 78.8366 104.107 78.7433 104.44C78.6499 104.773 78.5066 105.067 78.3133 105.32C78.1266 105.567 77.8866 105.767 77.5933 105.92C77.3066 106.067 76.9666 106.14 76.5733 106.14C76.2066 106.14 75.8533 106.06 75.5133 105.9C75.1799 105.733 74.9166 105.49 74.7233 105.17V108.04ZM83.6966 100.82H84.2966V106H83.6966V105.28C83.6166 105.373 83.5266 105.47 83.4266 105.57C83.3266 105.67 83.2099 105.763 83.0766 105.85C82.9499 105.93 82.7999 105.997 82.6266 106.05C82.4532 106.11 82.2532 106.14 82.0266 106.14C81.6799 106.14 81.3899 106.093 81.1566 106C80.9232 105.9 80.7332 105.763 80.5866 105.59C80.4466 105.417 80.3432 105.217 80.2766 104.99C80.2166 104.757 80.1866 104.503 80.1866 104.23V100.82H80.7866V104.22C80.7866 104.667 80.8899 105.01 81.0966 105.25C81.3032 105.483 81.6432 105.6 82.1166 105.6C82.3632 105.6 82.5832 105.553 82.7766 105.46C82.9766 105.36 83.1432 105.223 83.2766 105.05C83.4099 104.877 83.5132 104.67 83.5866 104.43C83.6599 104.19 83.6966 103.927 83.6966 103.64V100.82ZM87.5832 106.02C87.5099 106.033 87.4132 106.057 87.2932 106.09C87.1732 106.123 87.0399 106.14 86.8932 106.14C86.5932 106.14 86.3632 106.067 86.2032 105.92C86.0499 105.767 85.9732 105.497 85.9732 105.11V101.32H85.2432V100.82H85.9732V99.38H86.5732V100.82H87.5432V101.32H86.5732V104.87C86.5732 104.997 86.5765 105.107 86.5832 105.2C86.5899 105.293 86.6099 105.37 86.6432 105.43C86.6765 105.49 86.7265 105.533 86.7932 105.56C86.8665 105.587 86.9665 105.6 87.0932 105.6C87.1732 105.6 87.2532 105.593 87.3332 105.58C87.4199 105.567 87.5032 105.55 87.5832 105.53V106.02ZM92.3164 103.05C92.3164 102.797 92.2797 102.56 92.2064 102.34C92.1397 102.113 92.0364 101.92 91.8964 101.76C91.7631 101.593 91.5931 101.463 91.3864 101.37C91.1797 101.27 90.9431 101.22 90.6764 101.22C90.4097 101.22 90.1731 101.27 89.9664 101.37C89.7664 101.47 89.5931 101.603 89.4464 101.77C89.3064 101.937 89.1931 102.13 89.1064 102.35C89.0197 102.57 88.9631 102.803 88.9364 103.05H92.3164ZM88.9364 103.55C88.9364 103.83 88.9731 104.097 89.0464 104.35C89.1197 104.597 89.2264 104.813 89.3664 105C89.5131 105.18 89.6964 105.327 89.9164 105.44C90.1364 105.547 90.3897 105.6 90.6764 105.6C91.0697 105.6 91.4064 105.497 91.6864 105.29C91.9664 105.083 92.1531 104.79 92.2464 104.41H92.9164C92.8431 104.657 92.7464 104.887 92.6264 105.1C92.5064 105.307 92.3564 105.49 92.1764 105.65C91.9964 105.803 91.7831 105.923 91.5364 106.01C91.2897 106.097 91.0031 106.14 90.6764 106.14C90.2631 106.14 89.9064 106.07 89.6064 105.93C89.3064 105.79 89.0597 105.6 88.8664 105.36C88.6731 105.113 88.5297 104.827 88.4364 104.5C88.3431 104.167 88.2964 103.81 88.2964 103.43C88.2964 103.05 88.3497 102.693 88.4564 102.36C88.5697 102.027 88.7264 101.737 88.9264 101.49C89.1331 101.237 89.3831 101.04 89.6764 100.9C89.9697 100.753 90.3031 100.68 90.6764 100.68C91.3897 100.68 91.9497 100.927 92.3564 101.42C92.7631 101.907 92.9631 102.617 92.9564 103.55H88.9364ZM94.773 106H94.173V100.82H94.773V101.79H94.7931C94.9597 101.377 95.173 101.09 95.433 100.93C95.6997 100.763 96.0497 100.68 96.4831 100.68V101.33C96.1431 101.323 95.8631 101.377 95.6431 101.49C95.4231 101.603 95.2464 101.757 95.1131 101.95C94.9864 102.143 94.8964 102.373 94.843 102.64C94.7964 102.9 94.773 103.173 94.773 103.46V106Z" fill="#32384D"/>
<path d="M32.2206 28.4278C30.8329 28.4278 29.686 29.5682 29.686 30.9558V63.02C29.686 64.4076 30.8329 65.5496 32.2206 65.5496H48.8566L47.591 70.6138H44.8768C43.9565 70.6138 43.1893 71.3809 43.1893 72.3012V73.9887C43.1893 74.909 43.9565 75.6762 44.8768 75.6762H65.1252C66.0455 75.6762 66.8143 74.909 66.8143 73.9887V72.3012C66.8143 71.3809 66.0455 70.6138 65.1252 70.6138H62.4061L61.1437 65.5496H77.7814C79.169 65.5528 80.325 64.4328 80.311 63.02V30.9558C80.311 29.5682 79.1691 28.4278 77.7814 28.4278H32.2206ZM32.2206 30.1154H77.7814C78.2634 30.1154 78.6219 30.4739 78.6219 30.9558V58.8045H31.3735V30.9558C31.3735 30.4739 31.7386 30.1154 32.2206 30.1154ZM31.3735 60.492H78.6219V63.02C78.6219 63.502 78.2634 63.8604 77.7814 63.8604C62.5793 63.8541 47.4219 63.8604 32.2206 63.8604C31.7386 63.8604 31.3735 63.5019 31.3735 63.02V60.492ZM50.5969 65.5496H59.4051L60.6724 70.6138H49.3312L50.5969 65.5496ZM44.8768 72.3012C51.6322 72.3203 58.4299 72.3012 65.1252 72.3012V73.9887H44.8768V72.3012Z" fill="#32384D"/>
</svg>
