<svg width="36" height="36" viewBox="0 0 36 36" fill="none" xmlns="http://www.w3.org/2000/svg">
<circle cx="18" cy="18" r="18" fill="#F47D4A"/>
<path d="M25.6867 11.611C24.7989 10.6036 23.5673 10.0488 22.2188 10.0488C20.3221 10.0488 19.1214 11.1816 18.4481 12.1318C18.2734 12.3784 18.1248 12.6257 18 12.8583C17.8752 12.6257 17.7267 12.3784 17.5519 12.1318C16.8786 11.1816 15.6779 10.0488 13.7812 10.0488C12.4327 10.0488 11.2011 10.6036 10.3133 11.611C9.46642 12.572 9 13.859 9 15.2349C9 16.7327 9.58475 18.1257 10.8403 19.6189C11.9623 20.9534 13.5766 22.329 15.4459 23.9219C16.1424 24.5155 16.8628 25.1293 17.6296 25.8003L17.6527 25.8204C17.7521 25.9075 17.876 25.951 18 25.951C18.124 25.951 18.2479 25.9075 18.3473 25.8204L18.3704 25.8003C19.1372 25.1293 19.8576 24.5155 20.5542 23.9218C22.4234 22.329 24.0377 20.9535 25.1597 19.6189C26.4152 18.1257 27 16.7327 27 15.2349C27 13.859 26.5336 12.572 25.6867 11.611ZM19.8701 23.1191C19.2696 23.6308 18.6516 24.1574 18 24.7239C17.3484 24.1575 16.7304 23.6308 16.1298 23.1191C12.4715 20.0017 10.0547 17.9422 10.0547 15.2349C10.0547 14.1159 10.4275 13.0765 11.1045 12.3083C11.7893 11.5314 12.7399 11.1035 13.7812 11.1035C15.2272 11.1035 16.1619 11.9943 16.6913 12.7416C17.1663 13.4118 17.4141 14.0874 17.4986 14.3468C17.5693 14.5639 17.7717 14.7108 18 14.7108C18.2283 14.7108 18.4307 14.5639 18.5014 14.3468C18.5859 14.0874 18.8337 13.4118 19.3087 12.7416C19.8381 11.9943 20.7728 11.1035 22.2188 11.1035C23.2601 11.1035 24.2107 11.5314 24.8954 12.3083C25.5725 13.0765 25.9453 14.1159 25.9453 15.2349C25.9453 17.9422 23.5285 20.0017 19.8701 23.1191Z" fill="white"/>
</svg>
