<svg width="52" height="52" viewBox="0 0 52 52" fill="none" xmlns="http://www.w3.org/2000/svg">
<g clip-path="url(#clip0)">
<path d="M36.0961 17.4021C34.8537 16.0546 33.149 15.3125 31.2956 15.3125C29.9102 15.3125 28.6415 15.7505 27.5245 16.6142C26.9609 17.0502 26.4503 17.5836 26 18.2061C25.5499 17.5837 25.0391 17.0502 24.4753 16.6142C23.3585 15.7505 22.0898 15.3125 20.7044 15.3125C18.851 15.3125 17.1461 16.0546 15.9037 17.4021C14.6762 18.7338 14 20.5532 14 22.5252C14 24.5549 14.7564 26.4129 16.3804 28.3725C17.8331 30.1254 19.9211 31.9048 22.339 33.9653C23.1646 34.6689 24.1005 35.4666 25.0722 36.3162C25.3289 36.541 25.6583 36.6648 26 36.6648C26.3415 36.6648 26.6711 36.541 26.9274 36.3165C27.8992 35.4667 28.8356 34.6688 29.6616 33.9647C32.0791 31.9046 34.1671 30.1254 35.6198 28.3723C37.2438 26.4129 38 24.5549 38 22.525C38 20.5532 37.3238 18.7338 36.0961 17.4021Z" fill="#4CB5F5"/>
</g>
<rect x="0.5" y="0.5" width="51" height="51" stroke="#E0E0E0"/>
<defs>
<clipPath id="clip0">
<rect width="24" height="24" fill="white" transform="translate(14 14)"/>
</clipPath>
</defs>
</svg>
