<svg width="28" height="28" viewBox="0 0 28 28" fill="none" xmlns="http://www.w3.org/2000/svg">
<g clip-path="url(#clip0)">
<path d="M28 14C28 21.732 21.732 28 14 28C6.268 28 7.47452e-08 21.732 1.66948e-07 14C2.59152e-07 6.268 6.268 -2.59152e-07 14 -1.66948e-07C21.732 -7.47452e-08 28 6.268 28 14ZM7.42086 10.9679L6.1176 12.2754L14 20.1322L21.8824 12.2754L20.5791 10.9679L14 17.5256L7.42086 10.9679Z" fill="white"/>
</g>
<defs>
<clipPath id="clip0">
<rect width="28" height="28" fill="white" transform="matrix(1.19249e-08 -1 -1 -1.19249e-08 28 28)"/>
</clipPath>
</defs>
</svg>
